{
    "AuxAudioDevice1": {
        "deinterlace_field_order": 0,
        "deinterlace_mode": 0,
        "enabled": true,
        "flags": 0,
        "hotkeys": {
            "libobs.mute": [],
            "libobs.push-to-mute": [],
            "libobs.push-to-talk": [],
            "libobs.unmute": []
        },
        "id": "pulse_input_capture",
        "mixers": 255,
        "monitoring_type": 0,
        "muted": false,
        "name": "Mic/Aux",
        "private_settings": {},
        "push-to-mute": false,
        "push-to-mute-delay": 0,
        "push-to-talk": false,
        "push-to-talk-delay": 0,
        "settings": {
            "device_id": "default"
        },
        "sync": 0,
        "volume": 0.53144097328186035
    },
    "DesktopAudioDevice1": {
        "deinterlace_field_order": 0,
        "deinterlace_mode": 0,
        "enabled": true,
        "flags": 0,
        "hotkeys": {
            "libobs.mute": [],
            "libobs.push-to-mute": [],
            "libobs.push-to-talk": [],
            "libobs.unmute": []
        },
        "id": "pulse_output_capture",
        "mixers": 255,
        "monitoring_type": 0,
        "muted": false,
        "name": "Desktop Audio",
        "private_settings": {},
        "push-to-mute": false,
        "push-to-mute-delay": 0,
        "push-to-talk": false,
        "push-to-talk-delay": 0,
        "settings": {
            "device_id": "default"
        },
        "sync": 0,
        "volume": 0.10382301360368729
    },
    "current_program_scene": "Desktop",
    "current_scene": "Desktop",
    "current_transition": "Fade",
    "modules": {},
    "name": "Untitled",
    "preview_locked": false,
    "quick_transitions": [
        {
            "duration": 300,
            "hotkeys": [],
            "id": 1,
            "name": "Cut"
        },
        {
            "duration": 300,
            "hotkeys": [],
            "id": 2,
            "name": "Fade"
        }
    ],
    "saved_multiview_projectors": [
        {
            "saved_multiview_projectors": 0
        },
        {
            "saved_multiview_projectors": 0
        },
        {
            "saved_multiview_projectors": 0
        },
        {
            "saved_multiview_projectors": 0
        },
        {
            "saved_multiview_projectors": 0
        },
        {
            "saved_multiview_projectors": 0
        },
        {
            "saved_multiview_projectors": 0
        },
        {
            "saved_multiview_projectors": 0
        },
        {
            "saved_multiview_projectors": 0
        },
        {
            "saved_multiview_projectors": 0
        }
    ],
    "saved_preview_projectors": [
        {
            "saved_preview_projectors": 0
        },
        {
            "saved_preview_projectors": 0
        },
        {
            "saved_preview_projectors": 0
        },
        {
            "saved_preview_projectors": 0
        },
        {
            "saved_preview_projectors": 0
        },
        {
            "saved_preview_projectors": 0
        },
        {
            "saved_preview_projectors": 0
        },
        {
            "saved_preview_projectors": 0
        },
        {
            "saved_preview_projectors": 0
        },
        {
            "saved_preview_projectors": 0
        }
    ],
    "saved_projectors": [
        {
            "saved_projectors": ""
        },
        {
            "saved_projectors": ""
        },
        {
            "saved_projectors": ""
        },
        {
            "saved_projectors": ""
        },
        {
            "saved_projectors": ""
        },
        {
            "saved_projectors": ""
        },
        {
            "saved_projectors": ""
        },
        {
            "saved_projectors": ""
        },
        {
            "saved_projectors": ""
        },
        {
            "saved_projectors": ""
        }
    ],
    "saved_studio_preview_projectors": [
        {
            "saved_studio_preview_projectors": 0
        },
        {
            "saved_studio_preview_projectors": 0
        },
        {
            "saved_studio_preview_projectors": 0
        },
        {
            "saved_studio_preview_projectors": 0
        },
        {
            "saved_studio_preview_projectors": 0
        },
        {
            "saved_studio_preview_projectors": 0
        },
        {
            "saved_studio_preview_projectors": 0
        },
        {
            "saved_studio_preview_projectors": 0
        },
        {
            "saved_studio_preview_projectors": 0
        },
        {
            "saved_studio_preview_projectors": 0
        }
    ],
    "scaling_enabled": false,
    "scaling_level": 0,
    "scaling_off_x": 0.0,
    "scaling_off_y": 0.0,
    "scene_order": [
        {
            "name": "Desktop"
        }
    ],
    "sources": [
        {
            "deinterlace_field_order": 0,
            "deinterlace_mode": 0,
            "enabled": true,
            "flags": 0,
            "hotkeys": {
                "OBSBasic.SelectScene": [],
                "libobs.hide_scene_item.Screen Capture (XSHM)": [],
                "libobs.hide_scene_item.Webcam1": [],
                "libobs.show_scene_item.Screen Capture (XSHM)": [],
                "libobs.show_scene_item.Webcam1": []
            },
            "id": "scene",
            "mixers": 0,
            "monitoring_type": 0,
            "muted": false,
            "name": "Desktop",
            "private_settings": {},
            "push-to-mute": false,
            "push-to-mute-delay": 0,
            "push-to-talk": false,
            "push-to-talk-delay": 0,
            "settings": {
                "id_counter": 2,
                "items": [
                    {
                        "align": 5,
                        "bounds": {
                            "x": 0.0,
                            "y": 0.0
                        },
                        "bounds_align": 0,
                        "bounds_type": 0,
                        "crop_bottom": 0,
                        "crop_left": 0,
                        "crop_right": 0,
                        "crop_top": 0,
                        "id": 1,
                        "locked": false,
                        "name": "Screen Capture (XSHM)",
                        "pos": {
                            "x": 0.0,
                            "y": 0.0
                        },
                        "private_settings": {},
                        "rot": 0.0,
                        "scale": {
                            "x": 0.60000002384185791,
                            "y": 0.60000002384185791
                        },
                        "scale_filter": "disable",
                        "visible": true
                    },
                    {
                        "align": 5,
                        "bounds": {
                            "x": 0.0,
                            "y": 0.0
                        },
                        "bounds_align": 0,
                        "bounds_type": 0,
                        "crop_bottom": 0,
                        "crop_left": 0,
                        "crop_right": 0,
                        "crop_top": 0,
                        "id": 2,
                        "locked": false,
                        "name": "Webcam1",
                        "pos": {
                            "x": 1628.0,
                            "y": 861.0
                        },
                        "private_settings": {},
                        "rot": 0.0,
                        "scale": {
                            "x": 0.45625001192092896,
                            "y": 0.45625001192092896
                        },
                        "scale_filter": "disable",
                        "visible": true
                    }
                ]
            },
            "sync": 0,
            "volume": 1.0
        },
        {
            "deinterlace_field_order": 0,
            "deinterlace_mode": 0,
            "enabled": true,
            "flags": 0,
            "hotkeys": {},
            "id": "xshm_input",
            "mixers": 0,
            "monitoring_type": 0,
            "muted": false,
            "name": "Screen Capture (XSHM)",
            "private_settings": {},
            "push-to-mute": false,
            "push-to-mute-delay": 0,
            "push-to-talk": false,
            "push-to-talk-delay": 0,
            "settings": {
                "advanced": false
            },
            "sync": 0,
            "volume": 1.0
        },
        {
            "deinterlace_field_order": 0,
            "deinterlace_mode": 0,
            "enabled": true,
            "flags": 0,
            "hotkeys": {},
            "id": "v4l2_input",
            "mixers": 0,
            "monitoring_type": 0,
            "muted": false,
            "name": "Webcam1",
            "private_settings": {},
            "push-to-mute": false,
            "push-to-mute-delay": 0,
            "push-to-talk": false,
            "push-to-talk-delay": 0,
            "settings": {
                "device_id": "/dev/video0",
                "input": 0,
                "pixelformat": 1448695129
            },
            "sync": 0,
            "volume": 1.0
        }
    ],
    "transition_duration": 300,
    "transitions": []
}